<?xml version="1.0" encoding="UTF-8" standalone="no"?>
<!-- Created with Inkscape (http://www.inkscape.org/) -->

<svg
   xmlns:osb="http://www.openswatchbook.org/uri/2009/osb"
   xmlns:dc="http://purl.org/dc/elements/1.1/"
   xmlns:cc="http://creativecommons.org/ns#"
   xmlns:rdf="http://www.w3.org/1999/02/22-rdf-syntax-ns#"
   xmlns:svg="http://www.w3.org/2000/svg"
   xmlns="http://www.w3.org/2000/svg"
   xmlns:sodipodi="http://sodipodi.sourceforge.net/DTD/sodipodi-0.dtd"
   xmlns:inkscape="http://www.inkscape.org/namespaces/inkscape"
   width="744.09448819"
   height="1052.3622047"
   id="svg2"
   version="1.1"
   inkscape:version="0.48.3.1 r9886"
   sodipodi:docname="ANPA_one_transmission.svg"
   inkscape:export-filename="G:\Мои документы\Кафедра СМ11\Дисциплина по выбору\Введение\ANPA_щту_transmission.png"
   inkscape:export-xdpi="300"
   inkscape:export-ydpi="300">
  <defs
     id="defs4">
    <marker
       inkscape:stockid="Arrow1Mstart"
       orient="auto"
       refY="0.0"
       refX="0.0"
       id="Arrow1Mstart"
       style="overflow:visible">
      <path
         id="path5349"
         d="M 0.0,0.0 L 5.0,-5.0 L -12.5,0.0 L 5.0,5.0 L 0.0,0.0 z "
         style="fill-rule:evenodd;stroke:#000000;stroke-width:1.0pt"
         transform="scale(0.4) translate(10,0)" />
    </marker>
    <marker
       inkscape:stockid="Arrow1Lstart"
       orient="auto"
       refY="0.0"
       refX="0.0"
       id="Arrow1Lstart"
       style="overflow:visible">
      <path
         id="path5343"
         d="M 0.0,0.0 L 5.0,-5.0 L -12.5,0.0 L 5.0,5.0 L 0.0,0.0 z "
         style="fill-rule:evenodd;stroke:#000000;stroke-width:1.0pt"
         transform="scale(0.8) translate(12.5,0)" />
    </marker>
    <marker
       inkscape:stockid="Arrow2Lend"
       orient="auto"
       refY="0.0"
       refX="0.0"
       id="Arrow2Lend"
       style="overflow:visible;">
      <path
         id="path5364"
         style="fill-rule:evenodd;stroke-width:0.62500000;stroke-linejoin:round;"
         d="M 8.7185878,4.0337352 L -2.2072895,0.016013256 L 8.7185884,-4.0017078 C 6.9730900,-1.6296469 6.9831476,1.6157441 8.7185878,4.0337352 z "
         transform="scale(1.1) rotate(180) translate(1,0)" />
    </marker>
    <marker
       inkscape:stockid="Arrow2Lstart"
       orient="auto"
       refY="0.0"
       refX="0.0"
       id="Arrow2Lstart"
       style="overflow:visible">
      <path
         id="path5361"
         style="fill-rule:evenodd;stroke-width:0.62500000;stroke-linejoin:round"
         d="M 8.7185878,4.0337352 L -2.2072895,0.016013256 L 8.7185884,-4.0017078 C 6.9730900,-1.6296469 6.9831476,1.6157441 8.7185878,4.0337352 z "
         transform="scale(1.1) translate(1,0)" />
    </marker>
    <linearGradient
       id="linearGradient3775"
       osb:paint="solid">
      <stop
         style="stop-color:#000000;stop-opacity:1;"
         offset="0"
         id="stop3777" />
    </linearGradient>
  </defs>
  <sodipodi:namedview
     id="base"
     pagecolor="#ffffff"
     bordercolor="#666666"
     borderopacity="1.0"
     inkscape:pageopacity="0.0"
     inkscape:pageshadow="2"
     inkscape:zoom="2.8284271"
     inkscape:cx="385.91086"
     inkscape:cy="966.17583"
     inkscape:document-units="px"
     inkscape:current-layer="layer1"
     showgrid="false"
     inkscape:window-width="1920"
     inkscape:window-height="1028"
     inkscape:window-x="-8"
     inkscape:window-y="-8"
     inkscape:window-maximized="1" />
  <metadata
     id="metadata7">
    <rdf:RDF>
      <cc:Work
         rdf:about="">
        <dc:format>image/svg+xml</dc:format>
        <dc:type
           rdf:resource="http://purl.org/dc/dcmitype/StillImage" />
        <dc:title></dc:title>
      </cc:Work>
    </rdf:RDF>
  </metadata>
  <g
     inkscape:label="Layer 1"
     inkscape:groupmode="layer"
     id="layer1">
    <rect
       style="fill:#49bcd4;fill-opacity:1;stroke:none"
       id="rect2987"
       width="39.324829"
       height="32.163883"
       x="206.93515"
       y="61.280243" />
    <rect
       y="61.280243"
       x="246.25449"
       height="32.163883"
       width="40.33498"
       id="rect5223"
       style="fill:#0000ff;fill-opacity:1;stroke:none" />
    <text
       xml:space="preserve"
       style="font-size:6.26362371px;font-style:normal;font-variant:normal;font-weight:normal;font-stretch:normal;line-height:125%;letter-spacing:1.01783895px;word-spacing:0px;fill:#000000;fill-opacity:1;stroke:none;font-family:Arial;-inkscape-font-specification:Arial"
       x="289.88528"
       y="62.716457"
       id="text5225"
       sodipodi:linespacing="125%"
       transform="scale(0.71868665,1.391427)"><tspan
         sodipodi:role="line"
         id="tspan5227"
         x="289.88528"
         y="62.716457">Координаты</tspan></text>
    <text
       xml:space="preserve"
       style="font-size:6.26362371px;font-style:normal;font-variant:normal;font-weight:normal;font-stretch:normal;line-height:125%;letter-spacing:1.01783895px;word-spacing:0px;fill:#000000;fill-opacity:1;stroke:none;font-family:Arial;-inkscape-font-specification:Arial"
       x="343.62888"
       y="62.353466"
       id="text5229"
       sodipodi:linespacing="125%"
       transform="scale(0.71868665,1.391427)"><tspan
         sodipodi:role="line"
         id="tspan5231"
         x="343.62888"
         y="62.353466">Точное время</tspan></text>
    <rect
       y="61.280243"
       x="286.73721"
       height="32.163883"
       width="39.324829"
       id="rect5291"
       style="fill:#49bcd4;fill-opacity:1;stroke:none" />
    <rect
       style="fill:#0000ff;fill-opacity:1;stroke:none"
       id="rect5293"
       width="40.33498"
       height="32.163883"
       x="326.05655"
       y="61.280243" />
    <rect
       y="61.280243"
       x="404.77353"
       height="32.163883"
       width="39.324829"
       id="rect5305"
       style="fill:#49bcd4;fill-opacity:1;stroke:none" />
    <rect
       style="fill:#0000ff;fill-opacity:1;stroke:none"
       id="rect5307"
       width="40.33498"
       height="32.163883"
       x="444.09286"
       y="61.280243" />
    <rect
       y="61.280243"
       x="484.22202"
       height="32.163883"
       width="116.04592"
       id="rect5321"
       style="fill:#008000;fill-opacity:1;stroke:none" />
    <text
       transform="scale(0.71868665,1.391427)"
       sodipodi:linespacing="125%"
       id="text5325"
       y="56.364105"
       x="681.61304"
       style="font-size:6.26362371px;font-style:normal;font-variant:normal;font-weight:normal;font-stretch:normal;line-height:125%;letter-spacing:1.01783895px;word-spacing:0px;fill:#000000;fill-opacity:1;stroke:none;font-family:Arial;-inkscape-font-specification:Arial"
       xml:space="preserve"><tspan
         y="56.364105"
         x="681.61304"
         id="tspan5327"
         sodipodi:role="line">Информационный обмен</tspan></text>
    <path
       style="fill:none;stroke:#000000;stroke-width:1px;stroke-linecap:butt;stroke-linejoin:miter;stroke-opacity:1"
       d="m 207.46008,93.310728 0,29.294422"
       id="path5333"
       inkscape:connector-curvature="0" />
    <path
       inkscape:connector-curvature="0"
       id="path5335"
       d="m 483.77045,93.575893 0,29.294427"
       style="fill:none;stroke:#000000;stroke-width:1px;stroke-linecap:butt;stroke-linejoin:miter;stroke-opacity:1" />
    <path
       style="fill:none;stroke:#000000;stroke-width:0.998914px;stroke-linecap:butt;stroke-linejoin:miter;stroke-opacity:1;marker-start:url(#Arrow2Lstart);marker-end:url(#Arrow2Lend)"
       d="m 207.75,118.36219 275.40086,0 0,0"
       id="path5337"
       inkscape:connector-curvature="0" />
    <text
       xml:space="preserve"
       style="font-size:12px;font-style:normal;font-variant:normal;font-weight:normal;font-stretch:normal;line-height:125%;letter-spacing:1.95000005px;word-spacing:0px;fill:#000000;fill-opacity:1;stroke:none;font-family:Arial;-inkscape-font-specification:Arial"
       x="312.75"
       y="113.86219"
       id="text5969"
       sodipodi:linespacing="125%"><tspan
         sodipodi:role="line"
         id="tspan5971"
         x="312.75"
         y="113.86219">Навигация</tspan></text>
    <path
       style="fill:none;stroke:#000000;stroke-width:1.19838071px;stroke-linecap:butt;stroke-linejoin:miter;stroke-opacity:1;marker-start:url(#Arrow1Mstart)"
       d="m 485.63785,118.11219 115.96639,0"
       id="path5973"
       inkscape:connector-curvature="0"
       sodipodi:nodetypes="cc" />
    <text
       sodipodi:linespacing="125%"
       id="text6159"
       y="113.5693"
       x="497.19363"
       style="font-size:12px;font-style:normal;font-variant:normal;font-weight:normal;font-stretch:normal;line-height:125%;letter-spacing:1.95000005px;word-spacing:0px;fill:#000000;fill-opacity:1;stroke:none;font-family:Arial;-inkscape-font-specification:Arial"
       xml:space="preserve"><tspan
         y="113.5693"
         x="497.19363"
         id="tspan6161"
         sodipodi:role="line">Информация</tspan></text>
    <text
       transform="scale(0.71868665,1.391427)"
       sodipodi:linespacing="125%"
       id="text7481"
       y="62.970551"
       x="402.04846"
       style="font-size:6.26362371px;font-style:normal;font-variant:normal;font-weight:normal;font-stretch:normal;line-height:125%;letter-spacing:1.01783895px;word-spacing:0px;fill:#000000;fill-opacity:1;stroke:none;font-family:Arial;-inkscape-font-specification:Arial"
       xml:space="preserve"><tspan
         y="62.970551"
         x="402.04846"
         id="tspan7483"
         sodipodi:role="line">Координаты</tspan></text>
    <text
       transform="scale(0.71868665,1.391427)"
       sodipodi:linespacing="125%"
       id="text7485"
       y="62.607559"
       x="455.79205"
       style="font-size:6.26362371px;font-style:normal;font-variant:normal;font-weight:normal;font-stretch:normal;line-height:125%;letter-spacing:1.01783895px;word-spacing:0px;fill:#000000;fill-opacity:1;stroke:none;font-family:Arial;-inkscape-font-specification:Arial"
       xml:space="preserve"><tspan
         y="62.607559"
         x="455.79205"
         id="tspan7487"
         sodipodi:role="line">Точное время</tspan></text>
    <text
       xml:space="preserve"
       style="font-size:6.26362371px;font-style:normal;font-variant:normal;font-weight:normal;font-stretch:normal;line-height:125%;letter-spacing:1.01783895px;word-spacing:0px;fill:#000000;fill-opacity:1;stroke:none;font-family:Arial;-inkscape-font-specification:Arial"
       x="565.86572"
       y="62.716457"
       id="text7489"
       sodipodi:linespacing="125%"
       transform="scale(0.71868665,1.391427)"><tspan
         sodipodi:role="line"
         id="tspan7491"
         x="565.86572"
         y="62.716457">Координаты</tspan></text>
    <text
       xml:space="preserve"
       style="font-size:6.26362371px;font-style:normal;font-variant:normal;font-weight:normal;font-stretch:normal;line-height:125%;letter-spacing:1.01783895px;word-spacing:0px;fill:#000000;fill-opacity:1;stroke:none;font-family:Arial;-inkscape-font-specification:Arial"
       x="619.60931"
       y="62.353466"
       id="text7493"
       sodipodi:linespacing="125%"
       transform="scale(0.71868665,1.391427)"><tspan
         sodipodi:role="line"
         id="tspan7495"
         x="619.60931"
         y="62.353466">Точное время</tspan></text>
    <rect
       style="fill:#49bcd4;fill-opacity:1;stroke:none"
       id="rect7501"
       width="39.324829"
       height="32.163883"
       x="366.23621"
       y="61.280243" />
    <text
       xml:space="preserve"
       style="font-size:12px;font-style:normal;font-variant:normal;font-weight:normal;font-stretch:normal;line-height:125%;letter-spacing:1.95000005px;word-spacing:0px;fill:#000000;fill-opacity:1;stroke:none;font-family:Arial;-inkscape-font-specification:Arial"
       x="381.83768"
       y="87.514977"
       id="text7503"
       sodipodi:linespacing="125%"><tspan
         sodipodi:role="line"
         id="tspan7505"
         x="381.83768"
         y="87.514977">...</tspan></text>
    <rect
       style="fill:#808000;fill-opacity:1;stroke:none"
       id="rect7507"
       width="79.549515"
       height="16.970562"
       x="206.82872"
       y="61.352032" />
    <text
       xml:space="preserve"
       style="font-size:12px;font-style:normal;font-variant:normal;font-weight:normal;font-stretch:normal;line-height:125%;letter-spacing:1.95000005px;word-spacing:0px;fill:#000000;fill-opacity:1;stroke:none;font-family:Arial;-inkscape-font-specification:Arial"
       x="226.98128"
       y="74.43351"
       id="text7509"
       sodipodi:linespacing="125%"><tspan
         sodipodi:role="line"
         id="tspan7511"
         x="226.98128"
         y="74.43351">Буй 1</tspan></text>
    <rect
       y="61.352032"
       x="286.73178"
       height="16.970562"
       width="79.549515"
       id="rect7513"
       style="fill:#808000;fill-opacity:1;stroke:none" />
    <text
       sodipodi:linespacing="125%"
       id="text7515"
       y="74.43351"
       x="306.88434"
       style="font-size:12px;font-style:normal;font-variant:normal;font-weight:normal;font-stretch:normal;line-height:125%;letter-spacing:1.95000005px;word-spacing:0px;fill:#000000;fill-opacity:1;stroke:none;font-family:Arial;-inkscape-font-specification:Arial"
       xml:space="preserve"><tspan
         y="74.43351"
         x="306.88434"
         id="tspan7517"
         sodipodi:role="line">Буй 2</tspan></text>
    <rect
       style="fill:#808000;fill-opacity:1;stroke:none"
       id="rect7519"
       width="79.549515"
       height="16.970562"
       x="404.46506"
       y="60.998478" />
    <text
       xml:space="preserve"
       style="font-size:12px;font-style:normal;font-variant:normal;font-weight:normal;font-stretch:normal;line-height:125%;letter-spacing:1.95000005px;word-spacing:0px;fill:#000000;fill-opacity:1;stroke:none;font-family:Arial;-inkscape-font-specification:Arial"
       x="424.61761"
       y="74.079956"
       id="text7521"
       sodipodi:linespacing="125%"><tspan
         sodipodi:role="line"
         id="tspan7523"
         x="424.61761"
         y="74.079956">Буй N</tspan></text>
  </g>
</svg>
