<?xml version="1.0" encoding="UTF-8" standalone="no"?>
<!-- Created with Inkscape (http://www.inkscape.org/) -->

<svg
   xmlns:osb="http://www.openswatchbook.org/uri/2009/osb"
   xmlns:dc="http://purl.org/dc/elements/1.1/"
   xmlns:cc="http://creativecommons.org/ns#"
   xmlns:rdf="http://www.w3.org/1999/02/22-rdf-syntax-ns#"
   xmlns:svg="http://www.w3.org/2000/svg"
   xmlns="http://www.w3.org/2000/svg"
   xmlns:sodipodi="http://sodipodi.sourceforge.net/DTD/sodipodi-0.dtd"
   xmlns:inkscape="http://www.inkscape.org/namespaces/inkscape"
   width="744.09448819"
   height="1052.3622047"
   id="svg2"
   version="1.1"
   inkscape:version="0.48.3.1 r9886"
   sodipodi:docname="ANPA_bad_radii.svg"
   inkscape:export-filename="G:\Мои документы\Кафедра СМ11\Дисциплина по выбору\Введение\ANPA_bad_radii.png"
   inkscape:export-xdpi="300"
   inkscape:export-ydpi="300">
  <defs
     id="defs4">
    <marker
       inkscape:stockid="Arrow1Mend"
       orient="auto"
       refY="0.0"
       refX="0.0"
       id="Arrow1Mend"
       style="overflow:visible;">
      <path
         id="path5352"
         d="M 0.0,0.0 L 5.0,-5.0 L -12.5,0.0 L 5.0,5.0 L 0.0,0.0 z "
         style="fill-rule:evenodd;stroke:#000000;stroke-width:1.0pt;"
         transform="scale(0.4) rotate(180) translate(10,0)" />
    </marker>
    <marker
       inkscape:stockid="Arrow1Mstart"
       orient="auto"
       refY="0.0"
       refX="0.0"
       id="Arrow1Mstart"
       style="overflow:visible">
      <path
         id="path5349"
         d="M 0.0,0.0 L 5.0,-5.0 L -12.5,0.0 L 5.0,5.0 L 0.0,0.0 z "
         style="fill-rule:evenodd;stroke:#000000;stroke-width:1.0pt"
         transform="scale(0.4) translate(10,0)" />
    </marker>
    <marker
       inkscape:stockid="Arrow1Lstart"
       orient="auto"
       refY="0.0"
       refX="0.0"
       id="Arrow1Lstart"
       style="overflow:visible">
      <path
         id="path5343"
         d="M 0.0,0.0 L 5.0,-5.0 L -12.5,0.0 L 5.0,5.0 L 0.0,0.0 z "
         style="fill-rule:evenodd;stroke:#000000;stroke-width:1.0pt"
         transform="scale(0.8) translate(12.5,0)" />
    </marker>
    <marker
       inkscape:stockid="Arrow2Lend"
       orient="auto"
       refY="0.0"
       refX="0.0"
       id="Arrow2Lend"
       style="overflow:visible;">
      <path
         id="path5364"
         style="fill-rule:evenodd;stroke-width:0.62500000;stroke-linejoin:round;"
         d="M 8.7185878,4.0337352 L -2.2072895,0.016013256 L 8.7185884,-4.0017078 C 6.9730900,-1.6296469 6.9831476,1.6157441 8.7185878,4.0337352 z "
         transform="scale(1.1) rotate(180) translate(1,0)" />
    </marker>
    <marker
       inkscape:stockid="Arrow2Lstart"
       orient="auto"
       refY="0.0"
       refX="0.0"
       id="Arrow2Lstart"
       style="overflow:visible">
      <path
         id="path5361"
         style="fill-rule:evenodd;stroke-width:0.62500000;stroke-linejoin:round"
         d="M 8.7185878,4.0337352 L -2.2072895,0.016013256 L 8.7185884,-4.0017078 C 6.9730900,-1.6296469 6.9831476,1.6157441 8.7185878,4.0337352 z "
         transform="scale(1.1) translate(1,0)" />
    </marker>
    <linearGradient
       id="linearGradient3775"
       osb:paint="solid">
      <stop
         style="stop-color:#000000;stop-opacity:1;"
         offset="0"
         id="stop3777" />
    </linearGradient>
  </defs>
  <sodipodi:namedview
     id="base"
     pagecolor="#ffffff"
     bordercolor="#666666"
     borderopacity="1.0"
     inkscape:pageopacity="0.0"
     inkscape:pageshadow="2"
     inkscape:zoom="5.6568543"
     inkscape:cx="132.60464"
     inkscape:cy="944.99183"
     inkscape:document-units="px"
     inkscape:current-layer="layer1"
     showgrid="false"
     inkscape:window-width="1920"
     inkscape:window-height="1028"
     inkscape:window-x="-8"
     inkscape:window-y="-8"
     inkscape:window-maximized="1" />
  <metadata
     id="metadata7">
    <rdf:RDF>
      <cc:Work
         rdf:about="">
        <dc:format>image/svg+xml</dc:format>
        <dc:type
           rdf:resource="http://purl.org/dc/dcmitype/StillImage" />
        <dc:title></dc:title>
      </cc:Work>
    </rdf:RDF>
  </metadata>
  <g
     inkscape:label="Layer 1"
     inkscape:groupmode="layer"
     id="layer1">
    <path
       sodipodi:type="arc"
       style="fill:none;stroke:#000000;stroke-width:1;stroke-miterlimit:4;stroke-opacity:1;stroke-dasharray:none;stroke-dashoffset:0"
       id="path7527"
       sodipodi:cx="110.13188"
       sodipodi:cy="79.913582"
       sodipodi:rx="33.057243"
       sodipodi:ry="33.057243"
       d="m 143.18913,79.913582 a 33.057243,33.057243 0 1 1 -66.114492,0 33.057243,33.057243 0 1 1 66.114492,0 z"
       transform="matrix(1.0553131,0,0,1.0553131,-23.150688,-8.0441905)" />
    <path
       sodipodi:open="true"
       sodipodi:end="6.2727133"
       sodipodi:start="0"
       d="m 112.42997,80.090363 a 2.4748738,2.4748738 0 1 1 -1.3e-4,-0.02592"
       sodipodi:ry="2.4748738"
       sodipodi:rx="2.4748738"
       sodipodi:cy="80.090363"
       sodipodi:cx="109.9551"
       id="path7541"
       style="fill:#000000;stroke:#000000;stroke-width:1;stroke-miterlimit:4;stroke-opacity:1;stroke-dasharray:none;stroke-dashoffset:0"
       sodipodi:type="arc"
       transform="translate(-18.208,-4.7729707)" />
    <path
       transform="matrix(1.12643,0,0,1.12643,-10.034882,34.444257)"
       d="m 143.18913,79.913582 a 33.057243,33.057243 0 1 1 -66.114492,0 33.057243,33.057243 0 1 1 66.114492,0 z"
       sodipodi:ry="33.057243"
       sodipodi:rx="33.057243"
       sodipodi:cy="79.913582"
       sodipodi:cx="110.13188"
       id="path7543"
       style="fill:none;stroke:#000000;stroke-width:1;stroke-miterlimit:4;stroke-opacity:1;stroke-dasharray:none;stroke-dashoffset:0"
       sodipodi:type="arc" />
    <path
       transform="translate(4.5961938,44.370951)"
       sodipodi:type="arc"
       style="fill:#000000;stroke:#000000;stroke-width:1;stroke-miterlimit:4;stroke-opacity:1;stroke-dasharray:none;stroke-dashoffset:0"
       id="path7549"
       sodipodi:cx="109.9551"
       sodipodi:cy="80.090363"
       sodipodi:rx="2.4748738"
       sodipodi:ry="2.4748738"
       d="m 112.42997,80.090363 a 2.4748738,2.4748738 0 1 1 -1.3e-4,-0.02592"
       sodipodi:start="0"
       sodipodi:end="6.2727133"
       sodipodi:open="true" />
    <path
       sodipodi:type="arc"
       style="fill:none;stroke:#000000;stroke-width:1;stroke-miterlimit:4;stroke-opacity:1;stroke-dasharray:none;stroke-dashoffset:0"
       id="path7551"
       sodipodi:cx="110.13188"
       sodipodi:cy="79.913582"
       sodipodi:rx="33.057243"
       sodipodi:ry="33.057243"
       d="m 143.18913,79.913582 a 33.057243,33.057243 0 1 1 -66.114492,0 33.057243,33.057243 0 1 1 66.114492,0 z"
       transform="matrix(1.0474112,0,0,1.0474112,36.674589,7.3481307)" />
    <path
       sodipodi:type="arc"
       style="fill:#000000;stroke:#000000;stroke-width:1;stroke-miterlimit:4;stroke-opacity:1;stroke-dasharray:none;stroke-dashoffset:0"
       id="path7553"
       sodipodi:cx="109.9551"
       sodipodi:cy="80.090363"
       sodipodi:rx="2.4748738"
       sodipodi:ry="2.4748738"
       d="m 112.42997,80.090363 a 2.4748738,2.4748738 0 1 1 -1.3e-4,-0.02592"
       sodipodi:start="0"
       sodipodi:end="6.2727133"
       sodipodi:open="true"
       transform="translate(42.77996,12.197593)" />
    <path
       style="fill:none;stroke:#000000;stroke-width:1px;stroke-linecap:butt;stroke-linejoin:miter;stroke-opacity:1;marker-start:url(#Arrow1Lstart)"
       d="m 30.228815,35.012304 0,143.719456 0.176777,0"
       id="path9516"
       inkscape:connector-curvature="0" />
    <path
       style="fill:none;stroke:#000000;stroke-width:1px;stroke-linecap:butt;stroke-linejoin:miter;stroke-opacity:1;marker-start:url(#Arrow1Lstart)"
       d="m 253.14423,173.0749 -248.1944825,0 0,-0.17677"
       id="path9902"
       inkscape:connector-curvature="0" />
    <text
       xml:space="preserve"
       style="font-size:12px;font-style:normal;font-variant:normal;font-weight:normal;font-stretch:normal;line-height:125%;letter-spacing:1.95000005px;word-spacing:0px;fill:#000000;fill-opacity:1;stroke:none;font-family:Arial;-inkscape-font-specification:Arial"
       x="41.188969"
       y="42.613701"
       id="text10094"
       sodipodi:linespacing="125%"><tspan
         sodipodi:role="line"
         id="tspan10096"
         x="41.188969"
         y="42.613701">NS</tspan></text>
    <text
       xml:space="preserve"
       style="font-size:12px;font-style:normal;font-variant:normal;font-weight:normal;font-stretch:normal;line-height:125%;letter-spacing:1.95000005px;word-spacing:0px;fill:#000000;fill-opacity:1;stroke:none;font-family:Arial;-inkscape-font-specification:Arial"
       x="240.23953"
       y="161.93797"
       id="text10098"
       sodipodi:linespacing="125%"><tspan
         sodipodi:role="line"
         id="tspan10100"
         x="240.23953"
         y="161.93797">WE</tspan></text>
  </g>
</svg>
